<svg width="190" height="33" viewBox="0 0 190 33" fill="none" xmlns="http://www.w3.org/2000/svg">
<path d="M53.5391 15.8555C53.5391 17.5352 53.2422 19.0078 52.6484 20.2734C52.0547 21.5391 51.2031 22.5156 50.0938 23.2031C48.9922 23.8906 47.7266 24.2344 46.2969 24.2344C44.8828 24.2344 43.6211 23.8945 42.5117 23.2148C41.4023 22.5352 40.543 21.5664 39.9336 20.3086C39.3242 19.043 39.0156 17.5898 39.0078 15.9492V15.1055C39.0078 13.4258 39.3086 11.9492 39.9102 10.6758C40.5195 9.39453 41.375 8.41406 42.4766 7.73438C43.5859 7.04687 44.8516 6.70312 46.2734 6.70312C47.6953 6.70312 48.957 7.04687 50.0586 7.73438C51.168 8.41406 52.0234 9.39453 52.625 10.6758C53.2344 11.9492 53.5391 13.4219 53.5391 15.0938V15.8555ZM49.9766 15.082C49.9766 13.293 49.6562 11.9336 49.0156 11.0039C48.375 10.0742 47.4609 9.60938 46.2734 9.60938C45.0938 9.60938 44.1836 10.0703 43.543 10.9922C42.9023 11.9062 42.5781 13.25 42.5703 15.0234V15.8555C42.5703 17.5977 42.8906 18.9492 43.5312 19.9102C44.1719 20.8711 45.0938 21.3516 46.2969 21.3516C47.4766 21.3516 48.3828 20.8906 49.0156 19.9688C49.6484 19.0391 49.9688 17.6875 49.9766 15.9141V15.082ZM59.1758 12.7031C60.0742 11.625 61.2031 11.0859 62.5625 11.0859C65.3125 11.0859 66.707 12.6836 66.7461 15.8789V24H63.3594V15.9727C63.3594 15.2461 63.2031 14.7109 62.8906 14.3672C62.5781 14.0156 62.0586 13.8398 61.332 13.8398C60.3398 13.8398 59.6211 14.2227 59.1758 14.9883V24H55.7891V6H59.1758V12.7031ZM80.0938 6.9375L84.4766 19.3125L88.8359 6.9375H93.4531V24H89.9258V19.3359L90.2773 11.2852L85.6719 24H83.2578L78.6641 11.2969L79.0156 19.3359V24H75.5V6.9375H80.0938ZM101.035 19.207L103.379 11.3203H107.012L101.914 25.9688L101.633 26.6367C100.875 28.293 99.625 29.1211 97.8828 29.1211C97.3906 29.1211 96.8906 29.0469 96.3828 28.8984V26.332L96.8984 26.3438C97.5391 26.3438 98.0156 26.2461 98.3281 26.0508C98.6484 25.8555 98.8984 25.5312 99.0781 25.0781L99.4766 24.0352L95.0352 11.3203H98.6797L101.035 19.207ZM128.539 15.8555C128.539 17.4492 128.281 18.8359 127.766 20.0156C127.25 21.1875 126.535 22.1289 125.621 22.8398L128.457 25.0664L126.219 27.0469L122.586 24.1289C122.172 24.1992 121.742 24.2344 121.297 24.2344C119.883 24.2344 118.621 23.8945 117.512 23.2148C116.402 22.5352 115.543 21.5664 114.934 20.3086C114.324 19.043 114.016 17.5898 114.008 15.9492V15.1055C114.008 13.4258 114.309 11.9492 114.91 10.6758C115.52 9.39453 116.375 8.41406 117.477 7.73438C118.586 7.04687 119.852 6.70312 121.273 6.70312C122.695 6.70312 123.957 7.04687 125.059 7.73438C126.168 8.41406 127.023 9.39453 127.625 10.6758C128.234 11.9492 128.539 13.4219 128.539 15.0938V15.8555ZM124.977 15.082C124.977 13.293 124.656 11.9336 124.016 11.0039C123.375 10.0742 122.461 9.60938 121.273 9.60938C120.094 9.60938 119.184 10.0703 118.543 10.9922C117.902 11.9062 117.578 13.25 117.57 15.0234V15.8555C117.57 17.5977 117.891 18.9492 118.531 19.9102C119.172 20.8711 120.094 21.3516 121.297 21.3516C122.477 21.3516 123.383 20.8906 124.016 19.9688C124.648 19.0391 124.969 17.6875 124.977 15.9141V15.082ZM138.488 22.7109C137.652 23.7266 136.496 24.2344 135.02 24.2344C133.66 24.2344 132.621 23.8438 131.902 23.0625C131.191 22.2812 130.828 21.1367 130.812 19.6289V11.3203H134.199V19.5117C134.199 20.832 134.801 21.4922 136.004 21.4922C137.152 21.4922 137.941 21.0938 138.371 20.2969V11.3203H141.77V24H138.582L138.488 22.7109ZM147.898 24H144.5V11.3203H147.898V24ZM144.301 8.03906C144.301 7.53125 144.469 7.11328 144.805 6.78516C145.148 6.45703 145.613 6.29297 146.199 6.29297C146.777 6.29297 147.238 6.45703 147.582 6.78516C147.926 7.11328 148.098 7.53125 148.098 8.03906C148.098 8.55469 147.922 8.97656 147.57 9.30469C147.227 9.63281 146.77 9.79688 146.199 9.79688C145.629 9.79688 145.168 9.63281 144.816 9.30469C144.473 8.97656 144.301 8.55469 144.301 8.03906ZM154.59 21.2695H160.789V24H150.266V21.9375L156.23 14.0625H150.441V11.3203H160.602V13.3242L154.59 21.2695ZM166.355 18.7617H163.543L163.145 6.9375H166.754L166.355 18.7617ZM164.949 20.6133C165.52 20.6133 165.977 20.7812 166.32 21.1172C166.672 21.4531 166.848 21.8828 166.848 22.4062C166.848 22.9219 166.672 23.3477 166.32 23.6836C165.977 24.0195 165.52 24.1875 164.949 24.1875C164.387 24.1875 163.93 24.0195 163.578 23.6836C163.234 23.3477 163.062 22.9219 163.062 22.4062C163.062 21.8906 163.234 21.4648 163.578 21.1289C163.93 20.7852 164.387 20.6133 164.949 20.6133Z" fill="white"/>
<circle cx="17" cy="15" r="12" fill="white"/>
<rect x="13.6018" y="16.7769" width="8.44681" height="15.7352" transform="rotate(-32.8905 13.6018 16.7769)" fill="#FDC964"/>
</svg>
