<svg width="440" height="114" viewBox="0 0 440 114" fill="none" xmlns="http://www.w3.org/2000/svg">
  <path d="M141.955 57.6387C141.955 61.8379 141.213 65.5195 139.729 68.6836C138.244 71.8477 136.115 74.2891 133.342 76.0078C130.588 77.7266 127.424 78.5859 123.85 78.5859C120.314 78.5859 117.16 77.7363 114.387 76.0371C111.613 74.3379 109.465 71.916 107.941 68.7715C106.418 65.6074 105.646 61.9746 105.627 57.873V55.7637C105.627 51.5645 106.379 47.873 107.883 44.6895C109.406 41.4863 111.545 39.0352 114.299 37.3359C117.072 35.6172 120.236 34.7578 123.791 34.7578C127.346 34.7578 130.5 35.6172 133.254 37.3359C136.027 39.0352 138.166 41.4863 139.67 44.6895C141.193 47.873 141.955 51.5547 141.955 55.7344V57.6387ZM133.049 55.7051C133.049 51.2324 132.248 47.834 130.646 45.5098C129.045 43.1855 126.76 42.0234 123.791 42.0234C120.842 42.0234 118.566 43.1758 116.965 45.4805C115.363 47.7656 114.553 51.125 114.533 55.5586V57.6387C114.533 61.9941 115.334 65.373 116.936 67.7754C118.537 70.1777 120.842 71.3789 123.85 71.3789C126.799 71.3789 129.064 70.2266 130.646 67.9219C132.229 65.5977 133.029 62.2188 133.049 57.7852V55.7051ZM156.047 49.7578C158.293 47.0625 161.115 45.7148 164.514 45.7148C171.389 45.7148 174.875 49.709 174.973 57.6973V78H166.506V57.9316C166.506 56.1152 166.115 54.7773 165.334 53.918C164.553 53.0391 163.254 52.5996 161.438 52.5996C158.957 52.5996 157.16 53.5566 156.047 55.4707V78H147.58V33H156.047V49.7578ZM204.24 46.3008L204.504 49.8457C206.75 47.0918 209.787 45.7148 213.615 45.7148C217.697 45.7148 220.5 47.3262 222.023 50.5488C224.25 47.3262 227.424 45.7148 231.545 45.7148C234.982 45.7148 237.541 46.7207 239.221 48.7324C240.9 50.7246 241.74 53.7324 241.74 57.7559V78H233.244V57.7852C233.244 55.9883 232.893 54.6797 232.189 53.8594C231.486 53.0195 230.246 52.5996 228.469 52.5996C225.93 52.5996 224.172 53.8105 223.195 56.2324L223.225 78H214.758V57.8145C214.758 55.9785 214.396 54.6504 213.674 53.8301C212.951 53.0098 211.721 52.5996 209.982 52.5996C207.58 52.5996 205.842 53.5957 204.768 55.5879V78H196.301V46.3008H204.24ZM260.109 66.0176L265.969 46.3008H275.051L262.307 82.9219L261.604 84.5918C259.709 88.7324 256.584 90.8027 252.229 90.8027C250.998 90.8027 249.748 90.6172 248.479 90.2461V83.8301L249.768 83.8594C251.369 83.8594 252.561 83.6152 253.342 83.127C254.143 82.6387 254.768 81.8281 255.217 80.6953L256.213 78.0879L245.109 46.3008H254.221L260.109 66.0176ZM328.869 57.6387C328.869 61.623 328.225 65.0898 326.936 68.0391C325.646 70.9688 323.859 73.3223 321.574 75.0996L328.664 80.666L323.068 85.6172L313.986 78.3223C312.951 78.498 311.877 78.5859 310.764 78.5859C307.229 78.5859 304.074 77.7363 301.301 76.0371C298.527 74.3379 296.379 71.916 294.855 68.7715C293.332 65.6074 292.561 61.9746 292.541 57.873V55.7637C292.541 51.5645 293.293 47.873 294.797 44.6895C296.32 41.4863 298.459 39.0352 301.213 37.3359C303.986 35.6172 307.15 34.7578 310.705 34.7578C314.26 34.7578 317.414 35.6172 320.168 37.3359C322.941 39.0352 325.08 41.4863 326.584 44.6895C328.107 47.873 328.869 51.5547 328.869 55.7344V57.6387ZM319.963 55.7051C319.963 51.2324 319.162 47.834 317.561 45.5098C315.959 43.1855 313.674 42.0234 310.705 42.0234C307.756 42.0234 305.48 43.1758 303.879 45.4805C302.277 47.7656 301.467 51.125 301.447 55.5586V57.6387C301.447 61.9941 302.248 65.373 303.85 67.7754C305.451 70.1777 307.756 71.3789 310.764 71.3789C313.713 71.3789 315.979 70.2266 317.561 67.9219C319.143 65.5977 319.943 62.2188 319.963 57.7852V55.7051ZM353.742 74.7773C351.652 77.3164 348.762 78.5859 345.07 78.5859C341.672 78.5859 339.074 77.6094 337.277 75.6562C335.5 73.7031 334.592 70.8418 334.553 67.0723V46.3008H343.02V66.7793C343.02 70.0801 344.523 71.7305 347.531 71.7305C350.402 71.7305 352.375 70.7344 353.449 68.7422V46.3008H361.945V78H353.977L353.742 74.7773ZM377.268 78H368.771V46.3008H377.268V78ZM368.273 38.0977C368.273 36.8281 368.693 35.7832 369.533 34.9629C370.393 34.1426 371.555 33.7324 373.02 33.7324C374.465 33.7324 375.617 34.1426 376.477 34.9629C377.336 35.7832 377.766 36.8281 377.766 38.0977C377.766 39.3867 377.326 40.4414 376.447 41.2617C375.588 42.082 374.445 42.4922 373.02 42.4922C371.594 42.4922 370.441 42.082 369.562 41.2617C368.703 40.4414 368.273 39.3867 368.273 38.0977ZM393.996 71.1738H409.494V78H383.186V72.8438L398.098 53.1562H383.625V46.3008H409.025V51.3105L393.996 71.1738ZM423.41 64.9043H416.379L415.383 35.3438H424.406L423.41 64.9043ZM419.895 69.5332C421.32 69.5332 422.463 69.9531 423.322 70.793C424.201 71.6328 424.641 72.707 424.641 74.0156C424.641 75.3047 424.201 76.3691 423.322 77.209C422.463 78.0488 421.32 78.4688 419.895 78.4688C418.488 78.4688 417.346 78.0488 416.467 77.209C415.607 76.3691 415.178 75.3047 415.178 74.0156C415.178 72.7266 415.607 71.6621 416.467 70.8223C417.346 69.9629 418.488 69.5332 419.895 69.5332Z" fill="white"/>
  <circle cx="43.1122" cy="57.3563" r="28.7604" fill="white"/>
  <rect x="34.9677" y="61.615" width="20.2444" height="37.7124" transform="rotate(-32.8905 34.9677 61.615)" fill="#FDC964"/>
</svg>
